Analysing_qPCR template for Calculating primer efficiencies
…
group_by(primer, primer_ratio) finds the unique combinations of primer+primer_ratio

mutate(technical_replicate = row_number()) counts how many times these unique values were encountered and saves these counts in column named technical replicate select(-"value") drops the column named value from sample_list because it has become redundant

how does sample list look like?

sample_list

## # A tibble: 96 x 4
## # Groups:   primer, primer_ratio [33]
##    primer   primer_ratio Pos   technical_replicate
##    <fct>    <fct>        <chr>               <int>
##  1 RNF141-1 1:1          A01                     1
##  2 RNF141-1 1:1          B01                     2
##  3 RNF141-1 1:1          C01                     3
##  4 RNF141-2 1:1          D01                     1
##  5 RNF141-2 1:1          E01                     2
##  6 RNF141-2 1:1          F01                     3
##  7 SETD4-1  1:1          G01                     1
##  8 SETD4-1  1:10         H01                     1
##  9 RNF141-1 1:10         A02                     1
## 10 RNF141-1 1:10         B02                     2
## #  with 86 more rows
…
